{
    "fluentMethods": true,
    "relationships": [
        {
            "relationshipName": "userId",
            "otherEntityName": "user",
            "relationshipType": "many-to-one",
            "relationshipValidateRules": [],
            "otherEntityField": "login",
            "ownerSide": true,
            "otherEntityRelationshipName": "transaction"
        }
    ],
    "fields": [
        {
            "fieldName": "transactionState",
            "fieldType": "String"
        },
        {
            "fieldName": "paidAmount",
            "fieldType": "BigDecimal"
        },
        {
            "fieldName": "transactionType",
            "fieldType": "String"
        },
        {
            "fieldName": "transactionTag",
            "fieldType": "String"
        },
        {
            "fieldName": "createdOn",
            "fieldType": "Instant"
        },
        {
            "fieldName": "modifiedOn",
            "fieldType": "Instant"
        }
    ],
    "changelogDate": "20180211201018",
    "dto": "mapstruct",
    "service": "serviceClass",
    "entityTableName": "transaction",
    "jpaMetamodelFiltering": false,
    "pagination": "no"
}
